<svg
    xmlns="http://www.w3.org/2000/svg"
    viewBox="0 0 420 420"
    id="vector">
    <path
        id="path_5"
        d="M 188 408.89 C 152.55 404.9 116.46 390.26 87.5 368.14 C 79.014 361.66 61.872 344.85 54.721 336 C 45.367 324.42 37.339 311.74 30.351 297.5 C -3.078 229.38 5.195 148.59 51.857 87.5 C 58.336 79.018 75.145 61.875 84 54.719 C 144.25 6.027 227.21 -3.615 296.79 29.988 C 337.54 49.669 369.39 81.419 389.59 122.5 C 423 190.46 414.73 271.51 368.14 332.5 C 361.66 340.98 344.86 358.13 336 365.28 C 306.23 389.34 269.08 404.75 230.79 408.94 C 219.66 410.16 198.99 410.13 188 408.89 Z M 220 359.32 C 228.38 355.91 233.94 347.31 233.98 337.72 C 234 330.84 232.06 325.71 227.7 321.16 C 218.01 311.05 203.19 310.75 193.47 320.47 C 182.45 331.49 184.52 349.94 197.62 357.63 C 205.23 362.08 211.96 362.59 220 359.32 Z M 216.32 279.55 C 221.33 277.76 223.71 275.51 226.6 269.8 C 228.67 265.72 230.53 253.78 240.56 180.3 C 248.54 121.81 251.97 93.835 251.62 90.133 C 250.93 82.758 247 75.253 240.41 68.712 C 222.98 51.421 197.29 51.513 179.96 68.93 C 172.91 76.004 169.75 82.514 169.24 91 C 168.97 95.531 172.05 121.13 179.42 175.5 C 185.23 218.4 190.46 256.38 191.05 259.9 C 192.78 270.34 196.7 276.24 204.01 279.41 C 208.32 281.28 211.38 281.31 216.32 279.55 Z"
        fill="#0072ce"
        stroke-width="1"/>
</svg>
