<svg
    xmlns="http://www.w3.org/2000/svg"
    viewBox="0 0 32 32"
    id="alpha_a_box">
    <path
        id="path_1"
        d="M 0 3.555 C 0 1.594 1.594 0 3.555 0 L 28.445 0 C 30.406 0 32 1.594 32 3.555 L 32 28.445 C 32 30.406 30.406 32 28.445 32 L 3.555 32 C 1.582 32 0 30.398 0 28.445 L 0 3.555 M 14.223 7.109 C 12.258 7.109 10.668 8.703 10.668 10.668 L 10.668 24.891 L 14.223 24.891 L 14.223 17.777 L 17.777 17.777 L 17.777 24.891 L 21.332 24.891 L 21.332 10.668 C 21.332 8.703 19.742 7.109 17.777 7.109 L 14.223 7.109 M 14.223 10.668 L 17.777 10.668 L 17.777 14.223 L 14.223 14.223 Z M 14.223 10.668"
        fill="#000000"
        stroke-width="1"/>
</svg>
