<svg
    xmlns="http://www.w3.org/2000/svg"
    viewBox="0 0 32 32"
    id="bordercolor">
    <path
        id="path_1"
        d="M 2.318 2.493 L 4.98 15.804 C 5.006 15.934 5.006 16.066 4.98 16.196 L 2.296 29.619 L 15.742 26.034 C 15.826 26.012 15.914 26 16 26 C 16.086 26 16.172 26.012 16.258 26.034 L 29.703 29.619 L 27.019 16.196 C 26.993 16.066 26.993 15.934 27.019 15.804 L 29.681 2.493 L 16.315 6.948 C 16.11 7.017 15.89 7.017 15.683 6.948 L 2.318 2.493 Z M 1.058 0.002 C 1.145 0.007 1.231 0.023 1.316 0.052 L 16 4.946 L 30.683 0.052 C 31.022 -0.063 31.395 0.016 31.661 0.25 C 31.928 0.486 32.049 0.847 31.979 1.196 L 29.019 16 L 31.979 30.804 C 32.047 31.143 31.936 31.492 31.684 31.729 C 31.496 31.905 31.25 32 30.999 32 C 30.913 32 30.827 31.989 30.741 31.966 L 16 28.035 L 1.258 31.966 C 0.922 32.059 0.568 31.966 0.315 31.729 C 0.063 31.492 -0.048 31.143 0.02 30.804 L 2.98 16 L 0.02 1.196 C -0.05 0.847 0.071 0.486 0.338 0.25 C 0.538 0.075 0.798 -0.014 1.058 0.002 Z"
        fill="#000000"
        stroke-width="1"/>
</svg>
