<svg
    xmlns="http://www.w3.org/2000/svg"
    viewBox="0 0 32 32"
    id="camerastop">
    <path
        id="path_1"
        d="M 11.199 3 C 10.32 3 9.602 3.73 9.602 4.625 L 9.602 6.25 C 9.602 7.145 8.879 7.875 8 7.875 L 6.398 7.875 L 6.398 6.25 L 3.199 6.25 L 3.199 7.875 L 1.602 7.875 C 0.719 7.875 0 8.605 0 9.5 L 0 27.375 C 0 28.27 0.719 29 1.602 29 L 30.398 29 C 31.281 29 32 28.27 32 27.375 L 32 9.5 C 32 8.605 31.281 7.875 30.398 7.875 L 24 7.875 C 23.121 7.875 22.398 7.145 22.398 6.25 L 22.398 4.625 C 22.398 3.73 21.68 3 20.801 3 L 11.199 3 Z M 11.199 11.125 L 20.801 11.125 C 21.68 11.125 22.398 11.855 22.398 12.75 L 22.398 22.5 C 22.398 23.395 21.68 24.125 20.801 24.125 L 11.199 24.125 C 10.32 24.125 9.602 23.395 9.602 22.5 L 9.602 12.75 C 9.602 11.855 10.32 11.125 11.199 11.125 Z M 11.199 11.125"
        fill="#000000"
        stroke-width="1"/>
</svg>
