<?xml version="1.0" encoding="UTF-8" standalone="no"?>
<svg
   xmlns:dc="http://purl.org/dc/elements/1.1/"
   xmlns:cc="http://creativecommons.org/ns#"
   xmlns:rdf="http://www.w3.org/1999/02/22-rdf-syntax-ns#"
   xmlns:svg="http://www.w3.org/2000/svg"
   xmlns="http://www.w3.org/2000/svg"
   xmlns:sodipodi="http://sodipodi.sourceforge.net/DTD/sodipodi-0.dtd"
   xmlns:inkscape="http://www.inkscape.org/namespaces/inkscape"
   width="24"
   height="24"
   version="1.1"
   id="svg845"
   sodipodi:docname="custom_editOffset.svg"
   inkscape:version="1.0 (4035a4fb49, 2020-05-01)">
  <metadata
     id="metadata851">
    <rdf:RDF>
      <cc:Work
         rdf:about="">
        <dc:format>image/svg+xml</dc:format>
        <dc:type
           rdf:resource="http://purl.org/dc/dcmitype/StillImage" />
        <dc:title />
      </cc:Work>
    </rdf:RDF>
  </metadata>
  <defs
     id="defs849" />
  <sodipodi:namedview
     inkscape:document-rotation="0"
     pagecolor="#ffffff"
     bordercolor="#666666"
     borderopacity="1"
     objecttolerance="10"
     gridtolerance="10"
     guidetolerance="10"
     inkscape:pageopacity="0"
     inkscape:pageshadow="2"
     inkscape:window-width="2560"
     inkscape:window-height="1377"
     id="namedview847"
     showgrid="false"
     inkscape:zoom="27.341462"
     inkscape:cx="17.08799"
     inkscape:cy="9.5800914"
     inkscape:window-x="1912"
     inkscape:window-y="-8"
     inkscape:window-maximized="1"
     inkscape:current-layer="g1424" />
  <g
     transform="matrix(0.003125,0,0,0.003125,-4,-4)"
     id="g1424">
    <path
       d="m 3662,1280 h 2916 c 88,0 164,31 226,94 l 2062,2062 c 63,62 94,138 94,226 v 2916 c 0,88 -31,164 -94,226 L 6804,8866 c -62,63 -138,94 -226,94 H 3662 c -88,0 -164,-31 -226,-94 L 1374,6804 c -63,-62 -94,-138 -94,-226 V 3662 c 0,-88 31,-164 94,-226 L 3436,1374 c 62,-63 138,-94 226,-94 z m 133,640 -1875,1875 V 6445 L 3795,8320 H 6445 L 8320,6445 V 3795 L 6445,1920 Z"
       style="stroke-width:0.00109578"
       id="path843" />
    <path
       d="m 4026.5,2240 h 2187 c 66,0 123,23.25 169.5,70.5 L 7929.5,3857 c 47.25,46.5 70.5,103.5 70.5,169.5 v 2187 c 0,66 -23.25,123 -70.5,169.5 L 6383,7929.5 c -46.5,47.25 -103.5,70.5 -169.5,70.5 h -2187 c -66,0 -123,-23.25 -169.5,-70.5 L 2310.5,6383 c -47.25,-46.5 -70.5,-103.5 -70.5,-169.5 v -2187 c 0,-66 23.25,-123 70.5,-169.5 L 3857,2310.5 c 46.5,-47.25 103.5,-70.5 169.5,-70.5 z m 99.75,480 L 2720,4126.25 v 1987.5 L 4126.25,7520 h 1987.5 L 7520,6113.75 V 4126.25 L 6113.75,2720 Z"
       style="fill:#ff6600;stroke-width:0.000821835"
       id="path858" />
  </g>
</svg>
