<?xml version="1.0" encoding="UTF-8" standalone="no"?>
<svg
   xmlns:dc="http://purl.org/dc/elements/1.1/"
   xmlns:cc="http://creativecommons.org/ns#"
   xmlns:rdf="http://www.w3.org/1999/02/22-rdf-syntax-ns#"
   xmlns:svg="http://www.w3.org/2000/svg"
   xmlns="http://www.w3.org/2000/svg"
   xmlns:sodipodi="http://sodipodi.sourceforge.net/DTD/sodipodi-0.dtd"
   xmlns:inkscape="http://www.inkscape.org/namespaces/inkscape"
   inkscape:version="1.0 (4035a4fb49, 2020-05-01)"
   sodipodi:docname="custom_machineStart.svg"
   id="svg845"
   version="1.1"
   height="24"
   width="24">
  <metadata
     id="metadata851">
    <rdf:RDF>
      <cc:Work
         rdf:about="">
        <dc:format>image/svg+xml</dc:format>
        <dc:type
           rdf:resource="http://purl.org/dc/dcmitype/StillImage" />
        <dc:title />
      </cc:Work>
    </rdf:RDF>
  </metadata>
  <defs
     id="defs849" />
  <sodipodi:namedview
     inkscape:current-layer="svg845"
     inkscape:window-maximized="1"
     inkscape:window-y="-8"
     inkscape:window-x="1912"
     inkscape:cy="10.010615"
     inkscape:cx="17.910112"
     inkscape:zoom="13.670731"
     showgrid="false"
     id="namedview847"
     inkscape:window-height="1377"
     inkscape:window-width="2560"
     inkscape:pageshadow="2"
     inkscape:pageopacity="0"
     guidetolerance="10"
     gridtolerance="10"
     objecttolerance="10"
     borderopacity="1"
     bordercolor="#666666"
     pagecolor="#ffffff"
     inkscape:document-rotation="0" />
  <path
     d="m 8.3909888,7.866756 v 8.073009 L 16.463961,11.903249 Z M 6.8909908,5.4397606 19.817991,11.903249 6.8909908,18.366761 Z M 12,1.4999996 c -5.7900002,0 -10.5000004,4.6882495 -10.5000004,10.4504994 0,5.761498 4.7100002,10.449748 10.5000004,10.449748 5.789999,0 10.5,-4.68825 10.5,-10.449748 C 22.5,6.1882491 17.789999,1.4999996 12,1.4999996 Z M 12,0 c 6.6165,0 12,5.3602492 12,11.950499 0,6.589498 -5.3835,11.949748 -12,11.949748 -6.6165002,0 -12,-5.36025 -12,-11.949748 C 0,5.3602492 5.3834998,0 12,0 Z"
     style="stroke-width:0.316403"
     id="path843" />
</svg>
