<?xml version="1.0" encoding="UTF-8" standalone="no"?>
<svg
   xmlns:dc="http://purl.org/dc/elements/1.1/"
   xmlns:cc="http://creativecommons.org/ns#"
   xmlns:rdf="http://www.w3.org/1999/02/22-rdf-syntax-ns#"
   xmlns:svg="http://www.w3.org/2000/svg"
   xmlns="http://www.w3.org/2000/svg"
   xmlns:sodipodi="http://sodipodi.sourceforge.net/DTD/sodipodi-0.dtd"
   xmlns:inkscape="http://www.inkscape.org/namespaces/inkscape"
   inkscape:version="1.0 (4035a4fb49, 2020-05-01)"
   sodipodi:docname="custom_preview.svg"
   id="svg845"
   version="1.1"
   height="24"
   width="24">
  <metadata
     id="metadata851">
    <rdf:RDF>
      <cc:Work
         rdf:about="">
        <dc:format>image/svg+xml</dc:format>
        <dc:type
           rdf:resource="http://purl.org/dc/dcmitype/StillImage" />
        <dc:title />
      </cc:Work>
    </rdf:RDF>
  </metadata>
  <defs
     id="defs849" />
  <sodipodi:namedview
     inkscape:current-layer="svg845"
     inkscape:window-maximized="1"
     inkscape:window-y="-8"
     inkscape:window-x="1912"
     inkscape:cy="0.89884178"
     inkscape:cx="10.313337"
     inkscape:zoom="19.333333"
     showgrid="false"
     id="namedview847"
     inkscape:window-height="1377"
     inkscape:window-width="2560"
     inkscape:pageshadow="2"
     inkscape:pageopacity="0"
     guidetolerance="10"
     gridtolerance="10"
     objecttolerance="10"
     borderopacity="1"
     bordercolor="#666666"
     pagecolor="#ffffff"
     inkscape:document-rotation="0" />
  <path
     d="M 8.1074219 0 C 3.6297919 0 0 3.6297919 0 8.1074219 C 0 12.585052 3.6297919 16.214844 8.1074219 16.214844 C 9.9324819 16.214844 11.615233 15.613583 12.970703 14.595703 L 14.017578 15.640625 L 15.640625 14.017578 L 14.595703 12.970703 C 15.613583 11.615233 16.214844 9.9324819 16.214844 8.1074219 C 16.214844 3.6297919 12.585052 0 8.1074219 0 z M 8.1074219 1.6210938 C 11.689012 1.6210938 14.59375 4.5258219 14.59375 8.1074219 C 14.59375 11.689012 11.689012 14.59375 8.1074219 14.59375 C 4.5258219 14.59375 1.6210938 11.689012 1.6210938 8.1074219 C 1.6210938 4.5258219 4.5258219 1.6210938 8.1074219 1.6210938 z M 17.027344 14.115234 C 16.8192 14.115234 16.6105 14.194187 16.453125 14.351562 L 14.351562 16.453125 C 14.036813 16.767875 14.036812 17.286803 14.351562 17.601562 L 20.515625 23.763672 C 20.830375 24.078432 21.347359 24.078432 21.662109 23.763672 L 23.763672 21.662109 C 24.078432 21.347359 24.078432 20.830375 23.763672 20.515625 L 17.601562 14.351562 C 17.444183 14.194187 17.235487 14.115234 17.027344 14.115234 z "
     id="path843" />
</svg>
