<svg
    xmlns="http://www.w3.org/2000/svg"
    viewBox="0 0 32 32"
    id="custom_services">
    <path
        id="path_1"
        d="M 20.934 24.656 C 22.898 24.656 24.496 23.055 24.496 21.09 C 24.496 19.129 22.898 17.527 20.934 17.527 C 18.953 17.527 17.371 19.129 17.371 21.09 C 17.371 23.055 18.953 24.656 20.934 24.656 M 28.496 22.078 L 30.648 23.766 C 30.84 23.926 30.898 24.188 30.766 24.422 L 28.73 27.941 C 28.598 28.16 28.352 28.246 28.105 28.16 L 25.574 27.141 C 25.051 27.551 24.469 27.883 23.855 28.145 L 23.465 30.836 C 23.434 31.082 23.219 31.273 22.969 31.273 L 18.898 31.273 C 18.637 31.273 18.43 31.082 18.387 30.836 L 18.008 28.145 C 17.383 27.883 16.816 27.551 16.293 27.141 L 13.746 28.16 C 13.531 28.246 13.254 28.16 13.137 27.941 L 11.102 24.422 C 10.969 24.188 11.027 23.926 11.219 23.766 L 13.371 22.078 L 13.297 21.09 L 13.371 20.086 L 11.219 18.414 C 11.027 18.254 10.969 17.977 11.102 17.762 L 13.137 14.238 C 13.254 14.008 13.531 13.922 13.746 14.008 L 16.293 15.039 C 16.816 14.633 17.383 14.285 18.008 14.035 L 18.387 11.332 C 18.43 11.098 18.637 10.91 18.898 10.91 L 22.969 10.91 C 23.219 10.91 23.434 11.098 23.465 11.332 L 23.855 14.035 C 24.469 14.285 25.051 14.633 25.574 15.039 L 28.105 14.008 C 28.352 13.922 28.598 14.008 28.73 14.238 L 30.766 17.762 C 30.898 17.977 30.84 18.254 30.648 18.414 L 28.496 20.086 L 28.57 21.09 L 28.496 22.078 M 7.535 9.555 C 8.801 9.555 9.82 8.539 9.82 7.273 C 9.82 6.008 8.801 4.973 7.535 4.973 C 6.926 4.973 6.344 5.219 5.91 5.648 C 5.48 6.078 5.238 6.664 5.238 7.273 C 5.238 8.539 6.27 9.555 7.535 9.555 M 12.395 7.914 L 13.805 8.988 C 13.906 9.09 13.938 9.266 13.848 9.41 L 12.539 11.68 C 12.469 11.824 12.293 11.883 12.148 11.824 L 10.52 11.172 L 9.441 11.813 L 9.164 13.543 C 9.137 13.703 9.008 13.816 8.848 13.816 L 6.227 13.816 C 6.055 13.816 5.922 13.703 5.895 13.543 L 5.66 11.813 L 4.555 11.172 L 2.898 11.824 C 2.766 11.883 2.605 11.824 2.52 11.68 L 1.211 9.41 C 1.121 9.266 1.164 9.09 1.281 8.988 L 2.664 7.914 L 2.621 7.273 L 2.664 6.633 L 1.281 5.555 C 1.164 5.453 1.121 5.281 1.211 5.133 L 2.52 2.867 C 2.605 2.719 2.766 2.66 2.898 2.719 L 4.539 3.375 L 5.66 2.734 L 5.895 1.004 C 5.922 0.844 6.055 0.727 6.227 0.727 L 8.848 0.727 C 9.008 0.727 9.137 0.844 9.164 1.004 L 9.441 2.734 L 10.52 3.375 L 12.148 2.719 C 12.293 2.66 12.469 2.719 12.539 2.867 L 13.848 5.133 C 13.938 5.281 13.906 5.453 13.805 5.555 L 12.395 6.633 L 12.438 7.273 Z M 12.395 7.914"
        fill="#000000"/>
</svg>
