<?xml version="1.0" encoding="UTF-8" standalone="no"?>
<svg
   xmlns:dc="http://purl.org/dc/elements/1.1/"
   xmlns:cc="http://creativecommons.org/ns#"
   xmlns:rdf="http://www.w3.org/1999/02/22-rdf-syntax-ns#"
   xmlns:svg="http://www.w3.org/2000/svg"
   xmlns="http://www.w3.org/2000/svg"
   xmlns:sodipodi="http://sodipodi.sourceforge.net/DTD/sodipodi-0.dtd"
   xmlns:inkscape="http://www.inkscape.org/namespaces/inkscape"
   width="24"
   height="24"
   version="1.1"
   id="svg845"
   sodipodi:docname="custom_editGroup.svg"
   inkscape:version="1.0 (4035a4fb49, 2020-05-01)">
  <metadata
     id="metadata851">
    <rdf:RDF>
      <cc:Work
         rdf:about="">
        <dc:format>image/svg+xml</dc:format>
        <dc:type
           rdf:resource="http://purl.org/dc/dcmitype/StillImage" />
        <dc:title />
      </cc:Work>
    </rdf:RDF>
  </metadata>
  <defs
     id="defs849" />
  <sodipodi:namedview
     inkscape:document-rotation="0"
     pagecolor="#ffffff"
     bordercolor="#666666"
     borderopacity="1"
     objecttolerance="10"
     gridtolerance="10"
     guidetolerance="10"
     inkscape:pageopacity="0"
     inkscape:pageshadow="2"
     inkscape:window-width="2560"
     inkscape:window-height="1377"
     id="namedview847"
     showgrid="false"
     inkscape:zoom="13.670731"
     inkscape:cx="17.910112"
     inkscape:cy="10.010615"
     inkscape:window-x="1912"
     inkscape:window-y="-8"
     inkscape:window-maximized="1"
     inkscape:current-layer="svg845" />
  <path
     d="M 10 2 C 8.896875 2 8 2.896875 8 4 L 8 9 L 10 9 L 10 4 L 22 4 L 22 12 L 17 12 L 17 14 L 22 14 C 23.1 14 24 13.1 24 12 L 24 4 C 24 2.896875 23.103125 2 22 2 L 10 2 z M 2 10 C 0.896875 10 0 10.896875 0 12 L 0 20 C 0 21.103125 0.9 22 2 22 L 14 22 C 15.1 22 16 21.1 16 20 L 16 12 C 16 10.896875 15.103125 10 14 10 L 2 10 z M 2 12 L 14 12 L 14 20 L 2 20 L 2 12 z "
     id="path843" />
</svg>
