<svg
    xmlns="http://www.w3.org/2000/svg"
    viewBox="0 0 32 32"
    id="custom_savesettings">
    <path
        id="path_1"
        d="M 20.176 9.043 L 20.176 3.477 L 6.262 3.477 L 6.262 9.043 L 20.176 9.043 M 16 22.957 C 17.105 22.957 18.168 22.516 18.949 21.734 C 19.734 20.953 20.176 19.891 20.176 18.781 C 20.176 17.676 19.734 16.613 18.949 15.832 C 18.168 15.047 17.105 14.609 16 14.609 C 14.895 14.609 13.832 15.047 13.051 15.832 C 12.266 16.613 11.824 17.676 11.824 18.781 C 11.824 19.891 12.266 20.953 13.051 21.734 C 13.832 22.516 14.895 22.957 16 22.957 M 22.957 0.695 L 28.523 6.262 L 28.523 22.957 C 28.523 23.695 28.227 24.402 27.707 24.922 C 27.184 25.445 26.477 25.738 25.738 25.738 L 6.262 25.738 C 4.715 25.738 3.477 24.488 3.477 22.957 L 3.477 3.477 C 3.477 2.742 3.773 2.031 4.293 1.512 C 4.816 0.988 5.523 0.695 6.262 0.695 L 22.957 0.695 M 14.609 28.523 L 17.391 28.523 L 17.391 31.305 L 14.609 31.305 L 14.609 28.523 M 9.043 28.523 L 11.824 28.523 L 11.824 31.305 L 9.043 31.305 L 9.043 28.523 M 20.176 28.523 L 22.957 28.523 L 22.957 31.305 L 20.176 31.305 Z M 20.176 28.523"
        fill="#000000"/>
</svg>
