<?xml version="1.0" encoding="UTF-8" standalone="no"?>
<svg
   xmlns:dc="http://purl.org/dc/elements/1.1/"
   xmlns:cc="http://creativecommons.org/ns#"
   xmlns:rdf="http://www.w3.org/1999/02/22-rdf-syntax-ns#"
   xmlns:svg="http://www.w3.org/2000/svg"
   xmlns="http://www.w3.org/2000/svg"
   xmlns:sodipodi="http://sodipodi.sourceforge.net/DTD/sodipodi-0.dtd"
   xmlns:inkscape="http://www.inkscape.org/namespaces/inkscape"
   width="24"
   height="24"
   version="1.1"
   id="svg845"
   sodipodi:docname="custom_undo.svg"
   inkscape:version="1.0 (4035a4fb49, 2020-05-01)">
  <metadata
     id="metadata851">
    <rdf:RDF>
      <cc:Work
         rdf:about="">
        <dc:format>image/svg+xml</dc:format>
        <dc:type
           rdf:resource="http://purl.org/dc/dcmitype/StillImage" />
        <dc:title />
      </cc:Work>
    </rdf:RDF>
  </metadata>
  <defs
     id="defs849" />
  <sodipodi:namedview
     inkscape:document-rotation="0"
     pagecolor="#ffffff"
     bordercolor="#666666"
     borderopacity="1"
     objecttolerance="10"
     gridtolerance="10"
     guidetolerance="10"
     inkscape:pageopacity="0"
     inkscape:pageshadow="2"
     inkscape:window-width="2560"
     inkscape:window-height="1377"
     id="namedview847"
     showgrid="false"
     inkscape:zoom="27.341462"
     inkscape:cx="14.195885"
     inkscape:cy="16.63022"
     inkscape:window-x="1912"
     inkscape:window-y="-8"
     inkscape:window-maximized="1"
     inkscape:current-layer="svg845" />
  <path
     style="stroke-width:0.999996"
     d="M 7.1741,1.3137947 0.3003,8.1907338 c -0.4004,0.3971965 -0.4004,1.0473907 0,1.4477871 L 7.1741,16.51236 c 0.4004,0.400396 0.8873,0.602195 1.451,0.602195 h 3.7124 c 0.4549,0 0.6855,-0.550995 0.362,-0.874493 L 7.424,10.964609 h 10.4261 c 1.1242,0 2.0499,0.922492 2.0499,2.049982 v 4.106364 c 0,1.12739 -0.9225,2.049881 -2.0499,2.049881 l -3.075,0.01 c -0.5638,0 -1.025,0.461296 -1.025,1.024991 v 2.037182 c 0,0.563795 0.4612,1.021791 1.025,1.024991 l 3.075,0.01 C 21.2389,23.278 24,20.516924 24,17.128155 v -4.106364 c 0,-3.39207 -2.7611,-6.1499455 -6.1499,-6.1499455 -3.4754,0 -6.9508,0 -10.4261,0 L 12.6995,1.5963922 C 13.023,1.2728951 12.7925,0.722 12.3343,0.722 H 8.6251 c -0.5637,0 -1.0506,0.20179821 -1.451,0.5989947 z"
     id="path843"
     inkscape:connector-curvature="0" />
</svg>
