<?xml version="1.0" encoding="UTF-8" standalone="no"?>
<svg
   xmlns:dc="http://purl.org/dc/elements/1.1/"
   xmlns:cc="http://creativecommons.org/ns#"
   xmlns:rdf="http://www.w3.org/1999/02/22-rdf-syntax-ns#"
   xmlns:svg="http://www.w3.org/2000/svg"
   xmlns="http://www.w3.org/2000/svg"
   xmlns:sodipodi="http://sodipodi.sourceforge.net/DTD/sodipodi-0.dtd"
   xmlns:inkscape="http://www.inkscape.org/namespaces/inkscape"
   width="24"
   height="24"
   version="1.1"
   id="svg845"
   sodipodi:docname="custom_redo.svg"
   inkscape:version="1.0 (4035a4fb49, 2020-05-01)">
  <metadata
     id="metadata851">
    <rdf:RDF>
      <cc:Work
         rdf:about="">
        <dc:format>image/svg+xml</dc:format>
        <dc:type
           rdf:resource="http://purl.org/dc/dcmitype/StillImage" />
        <dc:title />
      </cc:Work>
    </rdf:RDF>
  </metadata>
  <defs
     id="defs849" />
  <sodipodi:namedview
     inkscape:document-rotation="0"
     pagecolor="#ffffff"
     bordercolor="#666666"
     borderopacity="1"
     objecttolerance="10"
     gridtolerance="10"
     guidetolerance="10"
     inkscape:pageopacity="0"
     inkscape:pageshadow="2"
     inkscape:window-width="2560"
     inkscape:window-height="1377"
     id="namedview847"
     showgrid="false"
     inkscape:zoom="19.333333"
     inkscape:cx="13.286893"
     inkscape:cy="9.0486197"
     inkscape:window-x="1912"
     inkscape:window-y="-8"
     inkscape:window-maximized="1"
     inkscape:current-layer="svg845" />
  <path
     d="m 16.8243,1.31735 6.8778,6.8746 c 0.3972,0.4004 0.3972,1.0507 0,1.4511 l -6.8778,6.8746 c -0.3972,0.4004 -0.8841,0.6022 -1.4479,0.6022 h -3.7128 c -0.4548,0 -0.6855,-0.5542 -0.3619,-0.8777 l 5.276,-5.2729 H 6.1506 c -1.1276,0 -2.0502,0.9226 -2.0502,2.047 v 4.11 c 0,1.1244 0.9226,2.0502 2.0502,2.0502 l 3.0752,0.01 c 0.5638,0 1.0251,0.4613 1.0251,1.0251 v 2.0374 c 0,0.5638 -0.4613,1.0219 -1.0251,1.0219 l -3.0752,0.01 C 2.7581,23.28085 0,20.51945 0,17.13025 v -4.11 c 0,-3.3892 2.7613,-6.1505 6.1506,-6.1505 3.4757,0 6.9514,0 10.4271,0 l -5.276,-5.2761 c -0.3236,-0.3235 -0.093,-0.8745 0.3619,-0.8745 h 3.7128 c 0.5638,0 1.0507,0.1986 1.4479,0.599 z"
     id="path843"
     inkscape:connector-curvature="0" />
</svg>
