<svg
    xmlns="http://www.w3.org/2000/svg"
    viewBox="0 0 26 32"
    id="flash">
    <path
        id="path_1"
        d="M 13.185 2 L 5.286 13.164 L 9.821 13.164 C 10.205 13.164 10.568 13.369 10.766 13.7 C 10.964 14.031 10.975 14.449 10.792 14.789 L 3.993 27.421 L 19.235 15.164 L 14.454 15.164 C 14.029 15.164 13.638 14.916 13.457 14.531 C 13.276 14.146 13.334 13.685 13.605 13.357 L 22.993 2 L 13.185 2 Z M 12.719 0 L 24.898 0 C 25.323 0 25.714 0.249 25.895 0.633 C 26.076 1.018 26.018 1.479 25.747 1.807 L 16.359 13.164 L 21.781 13.164 C 22.248 13.164 22.666 13.46 22.821 13.901 C 22.976 14.343 22.835 14.836 22.469 15.129 L 1.792 31.758 C 1.591 31.919 1.346 32 1.102 32 C 0.851 32 0.601 31.916 0.397 31.746 C -0.006 31.411 -0.117 30.833 0.133 30.371 L 8.319 15.164 L 3.552 15.164 C 3.138 15.164 2.763 14.936 2.573 14.568 C 2.382 14.2 2.414 13.761 2.653 13.422 L 12.12 0.043 L 12.719 0 Z"
        fill="#000000"
        stroke-width="1"/>
</svg>
