<?xml version="1.0" encoding="UTF-8" standalone="no"?>
<svg
   xmlns:dc="http://purl.org/dc/elements/1.1/"
   xmlns:cc="http://creativecommons.org/ns#"
   xmlns:rdf="http://www.w3.org/1999/02/22-rdf-syntax-ns#"
   xmlns:svg="http://www.w3.org/2000/svg"
   xmlns="http://www.w3.org/2000/svg"
   xmlns:sodipodi="http://sodipodi.sourceforge.net/DTD/sodipodi-0.dtd"
   xmlns:inkscape="http://www.inkscape.org/namespaces/inkscape"
   inkscape:version="1.0 (4035a4fb49, 2020-05-01)"
   sodipodi:docname="custom_machineStop.svg"
   id="svg845"
   version="1.1"
   height="24"
   width="24">
  <metadata
     id="metadata851">
    <rdf:RDF>
      <cc:Work
         rdf:about="">
        <dc:format>image/svg+xml</dc:format>
        <dc:type
           rdf:resource="http://purl.org/dc/dcmitype/StillImage" />
        <dc:title />
      </cc:Work>
    </rdf:RDF>
  </metadata>
  <defs
     id="defs849" />
  <sodipodi:namedview
     inkscape:current-layer="svg845"
     inkscape:window-maximized="1"
     inkscape:window-y="-8"
     inkscape:window-x="1912"
     inkscape:cy="10.010615"
     inkscape:cx="17.910112"
     inkscape:zoom="13.670731"
     showgrid="false"
     id="namedview847"
     inkscape:window-height="1377"
     inkscape:window-width="2560"
     inkscape:pageshadow="2"
     inkscape:pageopacity="0"
     guidetolerance="10"
     gridtolerance="10"
     objecttolerance="10"
     borderopacity="1"
     bordercolor="#666666"
     pagecolor="#ffffff"
     inkscape:document-rotation="0" />
  <path
     d="m 20.796,13.188 c 0,0.24 -0.072,0.48 -0.228,0.696 l -5.244,7.284 -0.036,0.048 -0.228,0.312 c -0.024,0.024 -0.048,0.06 -0.072,0.084 -0.036,0.048 -0.084,0.096 -0.12,0.132 -0.096,0.132 -0.216,0.264 -0.336,0.384 C 13.368,23.28 11.76,24 9.984,24 6.24,24 3.204,20.964 3.204,17.22 V 6 c 0,-0.66 0.54,-1.2 1.2,-1.2 0.66,0 1.2,0.54 1.2,1.2 v 5.4 c 0,0.336 0.264,0.6 0.6,0.6 0.336,0 0.6,-0.264 0.6,-0.6 v -9 c 0,-0.66 0.54,-1.2 1.2,-1.2 0.66,0 1.2,0.54 1.2,1.2 v 9 c 0,0.336 0.264,0.6 0.6,0.6 0.336,0 0.6,-0.264 0.6,-0.6 V 1.2 c 0,-0.66 0.54,-1.2 1.2,-1.2 0.66,0 1.2,0.54 1.2,1.2 v 10.2 c 0,0.336 0.264,0.6 0.6,0.6 0.336,0 0.6,-0.264 0.6,-0.6 V 3.6 c 0,-0.66 0.54,-1.2 1.2,-1.2 0.66,0 1.2,0.54 1.2,1.2 v 11.964 l 2.22,-3.084 c 0.384,-0.54 1.128,-0.66 1.668,-0.276 0.324,0.24 0.504,0.612 0.504,0.984 z"
     style="stroke-width:0.506245"
     id="path843" />
</svg>
