<?xml version="1.0" encoding="UTF-8" standalone="no"?>
<svg
   xmlns:dc="http://purl.org/dc/elements/1.1/"
   xmlns:cc="http://creativecommons.org/ns#"
   xmlns:rdf="http://www.w3.org/1999/02/22-rdf-syntax-ns#"
   xmlns:svg="http://www.w3.org/2000/svg"
   xmlns="http://www.w3.org/2000/svg"
   xmlns:sodipodi="http://sodipodi.sourceforge.net/DTD/sodipodi-0.dtd"
   xmlns:inkscape="http://www.inkscape.org/namespaces/inkscape"
   width="24"
   height="24"
   version="1.1"
   id="svg845"
   sodipodi:docname="custom_open.svg"
   inkscape:version="1.0rc1 (09960d6f05, 2020-04-09)">
  <metadata
     id="metadata851">
    <rdf:RDF>
      <cc:Work
         rdf:about="">
        <dc:format>image/svg+xml</dc:format>
        <dc:type
           rdf:resource="http://purl.org/dc/dcmitype/StillImage" />
        <dc:title></dc:title>
      </cc:Work>
    </rdf:RDF>
  </metadata>
  <defs
     id="defs849" />
  <sodipodi:namedview
     inkscape:document-rotation="0"
     pagecolor="#ffffff"
     bordercolor="#666666"
     borderopacity="1"
     objecttolerance="10"
     gridtolerance="10"
     guidetolerance="10"
     inkscape:pageopacity="0"
     inkscape:pageshadow="2"
     inkscape:window-width="2560"
     inkscape:window-height="1377"
     id="namedview847"
     showgrid="false"
     inkscape:zoom="9.6666666"
     inkscape:cx="8.2771639"
     inkscape:cy="23.797803"
     inkscape:window-x="1912"
     inkscape:window-y="-8"
     inkscape:window-maximized="1"
     inkscape:current-layer="svg845" />
  <path
     d="m 9.3243267,7.0826554 11.0027653,2.759676 h 3.011337 c 0.434979,0 0.727496,0.3486896 0.64876,0.7799516 l -1.822541,10.045271 c -0.07878,0.427417 -0.498793,0.779859 -0.93377,0.779859 H 2.7691676 c -0.4350236,0 -0.8550324,-0.352442 -0.9338157,-0.779859 L 0.01281133,10.622283 C -0.06592599,10.191021 0.2265924,9.8423314 0.66157045,9.8423314 H 7.535524 Z M 2.8125865,2.552587 h 6.4017237 c 0.4612844,0 0.8363118,0.3748729 0.8363118,0.8359663 V 4.9892606 H 22.021508 V 7.9432587 H 19.178797 L 8.4305025,5.2479231 6.6828729,7.9432587 H 1.9762749 V 5.3716307 4.9892606 3.3885533 C 1.9762747,2.9274599 2.3475522,2.552587 2.8125865,2.552587 Z"
     id="path843"
     inkscape:connector-curvature="0"
     style="stroke-width:0.00100446" />
</svg>
