<svg
    xmlns="http://www.w3.org/2000/svg"
    viewBox="0 0 32 32"
    id="custom_editlevelbottom">
    <path
        id="path_1"
        d="M 2.004 22.609 L 16.621 22.609 L 21.531 28.719 L 2.004 28.719 C 0.902 28.719 0 27.816 0 26.715 L 0 24.512 C 0 23.512 0.902 22.609 2.004 22.609 Z M 2.004 22.609"
        fill="#ff6600"
        stroke-width="1"/>
    <path
        id="path_2"
        d="M 2.004 3.281 C 0.902 3.281 0 4.184 0 5.285 L 0 7.289 C 0 8.391 0.902 9.289 2.004 9.289 L 19.629 9.289 L 19.629 7.59 C 19.629 5.688 21.129 4.184 23.031 4.184 L 25.734 4.184 C 25.336 3.684 24.734 3.281 24.031 3.281 Z M 23.031 6.188 C 22.23 6.188 21.629 6.887 21.527 7.688 L 21.527 18.703 L 18.625 18.703 C 17.125 18.605 16.523 19.402 17.223 20.305 L 18.727 22.207 C 19.426 23.109 20.73 24.613 21.43 25.512 L 22.93 27.418 C 23.633 28.316 24.836 28.316 25.637 27.418 L 27.238 25.512 C 28.039 24.613 29.242 23.109 30.043 22.207 L 31.645 20.305 C 32.445 19.402 31.844 18.602 30.34 18.602 L 27.438 18.602 L 27.438 7.59 C 27.438 6.789 26.836 6.188 26.035 6.188 Z M 2.004 12.594 C 0.902 12.594 0 13.496 0 14.5 L 0 16.703 C 0 17.805 0.902 18.703 2.004 18.703 L 15.219 18.703 C 15.422 18.305 15.621 17.902 15.922 17.602 C 16.422 17.102 17.223 16.602 18.824 16.602 L 19.629 16.602 L 19.629 12.594 Z M 2.004 12.594"
        fill="#000000"
        stroke-width="1"/>
</svg>
