<svg
    xmlns="http://www.w3.org/2000/svg"
    viewBox="0 0 32 32"
    id="custom_file_new">
    <path
        id="path_1"
        d="M 2.285 0 L 20.965 0 C 22.223 0 23.309 0.449 24.195 1.34 L 28.375 5.516 C 29.266 6.406 29.715 7.492 29.715 8.75 L 29.715 32 L 2.285 32 Z M 22.859 3.43 L 22.859 6.855 L 26.285 6.855 Z M 4.57 2.285 L 4.57 29.715 L 27.43 29.715 L 27.43 10.285 C 27.43 9.656 26.914 9.145 26.285 9.145 L 20.57 9.145 L 20.57 3.43 C 20.57 2.801 20.059 2.285 19.43 2.285 Z M 4.57 2.285"
        fill="#000000"/>
</svg>
