<?xml version="1.0" encoding="UTF-8" standalone="no"?>
<svg
   xmlns:dc="http://purl.org/dc/elements/1.1/"
   xmlns:cc="http://creativecommons.org/ns#"
   xmlns:rdf="http://www.w3.org/1999/02/22-rdf-syntax-ns#"
   xmlns:svg="http://www.w3.org/2000/svg"
   xmlns="http://www.w3.org/2000/svg"
   xmlns:sodipodi="http://sodipodi.sourceforge.net/DTD/sodipodi-0.dtd"
   xmlns:inkscape="http://www.inkscape.org/namespaces/inkscape"
   width="24"
   height="24"
   version="1.1"
   id="svg845"
   sodipodi:docname="custom_draw3DShape.svg"
   inkscape:version="1.0 (4035a4fb49, 2020-05-01)">
  <metadata
     id="metadata851">
    <rdf:RDF>
      <cc:Work
         rdf:about="">
        <dc:format>image/svg+xml</dc:format>
        <dc:type
           rdf:resource="http://purl.org/dc/dcmitype/StillImage" />
        <dc:title />
      </cc:Work>
    </rdf:RDF>
  </metadata>
  <defs
     id="defs849" />
  <sodipodi:namedview
     inkscape:document-rotation="0"
     pagecolor="#ffffff"
     bordercolor="#666666"
     borderopacity="1"
     objecttolerance="10"
     gridtolerance="10"
     guidetolerance="10"
     inkscape:pageopacity="0"
     inkscape:pageshadow="2"
     inkscape:window-width="2560"
     inkscape:window-height="1377"
     id="namedview847"
     showgrid="false"
     inkscape:zoom="27.341462"
     inkscape:cx="25.014345"
     inkscape:cy="13.785061"
     inkscape:window-x="1912"
     inkscape:window-y="-8"
     inkscape:window-maximized="1"
     inkscape:current-layer="svg845" />
  <path
     d="m 4.2857481,0.857 c -0.47143,0 -0.85715,0.3857 -0.85715,0.8572 V 9.375 c 0.5384,-0.2679 1.1143,-0.4768 1.7143,-0.6134 V 2.5713 h 8.5715499 v 4.8215 l 1.38751,-2.309 c 0.0911,-0.1526 0.2009,-0.2866 0.32679,-0.4017 V 1.7142 c 0,-0.4715 -0.38572,-0.8572 -0.85715,-0.8572 z M 16.560658,5.1079 c -0.30453,0 -0.56655,0.1542 -0.72476,0.4152 l -3.31343,5.526 c 0.42054,0.4554 0.78751,0.9643 1.09019,1.5107 l 2.95182,-4.9152 5.07864,8.6412 h -7.07152 c 0,0.5893 -0.067,1.1625 -0.19018,1.7143 h 8.75904 c 0.31608,0 0.58662,-0.1581 0.74466,-0.4313 0.15535,-0.2732 0.15268,-0.5866 -0.005,-0.8598 L 17.309498,5.5312 c -0.15804,-0.2679 -0.42322,-0.4233 -0.73394,-0.4233 -0.005,0 -0.01,0 -0.0145,0 z M 6.8572081,9.4285 c -3.78755,0 -6.857230034048,3.0697 -6.857230034048,6.8573 0,3.7875 3.069680034048,6.8572 6.857230034048,6.8572 3.7875499,0 6.8572399,-3.0697 6.8572399,-6.8572 0,-3.7876 -3.06969,-6.8573 -6.8572399,-6.8573 z m 0,1.7143 c 2.83933,0 5.1429299,2.3037 5.1429299,5.143 0,2.8393 -2.3035999,5.1429 -5.1429299,5.1429 -2.83932,0 -5.14292,-2.3036 -5.14292,-5.1429 0,-2.8393 2.3036,-5.143 5.14292,-5.143 z"
     style="stroke-width:0.00200895"
     id="path843" />
</svg>
