<svg
    xmlns="http://www.w3.org/2000/svg"
    viewBox="0 0 32 32"
    id="edit">
    <path
        id="path_1"
        d="M 3.2 30.7 L 31.6 30.7 C 31.8 30.7 32 30.9 32 31.1 C 32 31.3 31.8 31.5 31.6 31.5 L 3.2 31.5 C 3 31.5 2.8 31.3 2.8 31.1 C 2.8 30.9 2.9 30.7 3.2 30.7 Z M 1.2 23.5 L 3.7 25.6 L 6.2 27.7 L 3.1 28.8 L 0 30 L 0.6 26.8 L 1.2 23.5 Z M 14.6 5.2 L 21.5 11 L 9.5 25.2 L 2.6 19.4 L 14.6 5.2 Z M 21.3 0 C 22.3 0 23.3 0.4 24.2 1.1 C 26.1 2.7 26.4 5.6 24.7 7.5 L 23.2 9.3 L 16.3 3.5 L 17.8 1.7 C 18.7 0.5 20 0 21.3 0 Z"
        fill="#000000"
        stroke-width="1"/>
</svg>
