<svg
    xmlns="http://www.w3.org/2000/svg"
    viewBox="0 0 32 32"
    id="textcircled">
    <path
        id="path_1"
        d="M 16 20.801 C 8.512 20.801 2.129 25.504 0 32 L 3.551 32 C 5.551 27.313 10.367 24 16 24 C 21.633 24 26.449 27.313 28.449 32 L 32 32 C 29.871 25.504 23.488 20.801 16 20.801 Z M 25.602 0 L 25.602 4.801 L 22.398 4.801 L 22.398 3.199 L 17.602 3.199 L 17.602 14.398 L 19.199 14.398 L 19.199 17.602 L 12.801 17.602 L 12.801 14.398 L 14.398 14.398 L 14.398 3.199 L 9.602 3.199 L 9.602 4.801 L 6.398 4.801 L 6.398 0 Z M 25.602 0"
        fill="#000000"
        stroke-width="1"/>
</svg>
